…
plot_df = 
  tibble(
    x = rnorm(1000, sd = .5),
    y = 1 + 2 * x + rnorm(1000)
  )


plot_df ##kind of thing you can just put in console 
```

    ## # A tibble: 1,000 x 2
    ##            x      y
    ##        <dbl>  <dbl>
    ##  1 -0.575     0.715
    ##  2 -0.229     2.04 
    ##  3  0.000510  1.07 
    ##  4  0.148     0.854
    ##  5  0.399     2.02 
    ##  6 -0.130     0.775
    ##  7 -0.365     0.446
    ##  8  0.0699   -0.125
    ##  9  0.0623    2.17 
    ## 10 -0.825     0.252
    ## # … with 990 more rows
…
